Date,Income/Expense,Description,Amount
1/20/2022,Expense,putnamCountyTreasure,1577.21
7/07/2022,Expense,putnamCountyTreasure,1559.27
1/22/2022,Expense,fortJenningsPropane1,364.07
3/14/2022,Expense,fortJenningsPropane2,489.53
7/12/2022,Expense,fortJenningsPropane3,268.64
12/11/2022,Expense,fortJenningsPropane4 156 gallons@$2.04/gal,342.68
1/1/2022,Expense,cauvputnam,0.0
1/22/2022,Expense,germanmutualfirst,789.22
7/27/2022,Expense,germanmutualsecond,798.22
1/3/2022,Expense,Bank statement adjustment,40.0
1/12/2022,Expense,Peacock water Salt,101.51
1/22/2022,Expense,Cash Withdraw,200.0
1/26/2022,Expense,AEP electric,247.85
2/22/2022,Expense,Steve Meyers Service mower,385.45
2/22/2022,Expense,Basement Doctor,120.0
3/14/2022,Expense,Dale Cavelage tree stump removal,100.0
4/08/2022,Expense,Cash Withdraw,300.0
5/16/2022,Expense,Cash Withdraw,400.0
6/07/2022,Expense,Cash Withdraw,400.0
6/13/2022,Expense,ACR-Dumpstser,250.0
7/08/2022,Expense,Rock,308.68
7/19/2022,Expense,Cash Withdraw,800.0
7/19/2022,Expense,AEP electric,357.86
7/25/2022,Expense,Cash Withdraw,500.0
8/01/2022,Expense,Well pump Grothhaus,1931.66
8/01/2022,Expense,Oliver Tractor purchase from Steve Warneke,2500.0
8/03/2022,Expense,Cash Withdraw,500.0
8/10/2022,Expense,Peacock water Salt,112.19
8/10/2022,Expense,AEP electric,304.66
8/22/2022,Expense,Cash Withdraw,500.0
11/22/2022,Expense,Cash Withdraw,500.0
11/28/2022,Expense,Cash Withdraw,200.0
12/14/2022,Expense,AEP electric,215.4
1/03/2022,Expense,Soybeanseed10acres,494.3
5/02/2022,Expense,Fertilizer Wheat 20Acres,1668.44
7/10/2022,Expense,soybeanspray 10 acres,421.38
7/11/2022,Expense,Soybean fertilizer 10acres,263.7
8/08/2022,Expense,Soybeanseed 20acres double crop,612.0
9/12/2022,Expense,soybean spray 20 acres double crop,747.97
1/1/2022,Expense,limeforsoil,0
8/14/2022,Expense,wheatseed for 10 acres for 2023 season,386.25
11/13/2022,Expense,wheat fertilzer and spray for 10 acres for 2023 season,1157.72
12/11/2021,Expense,popcorn fertilizer for 20 acres for 2023 season,2143.57
12/11/2021,Expense,popcorn fertilizer (NH3) for 20 acres for 2023 season,2213.08
,,Expenses Total,27572.51
,,
7/11/2021,Income,"wheat 20acres, 1025 Bu @$8.36-8.82/Bu",8777.59
7/20/2021,Income,Straw 20 acres 44.5 Bales J.Bockey,1107.6
10/11/2021,Income,"Soybeans 10acres, 346.52 Bu @$13.57Bu/Ac Hempker grain ",4677.78
11/14/2021,Income,"Soybeans 20acres, 486.66 Bu @$13.71Bu/Ac Hempker grain ",6618.32
1/1/2021,Income,fsaincom cfap2,0
,,Income Total,21181.29
,,
,,Grand Total,-6391.2199999999975
,,
,,
Income/Expense,Grouping Description,Total
Expense,Total Property taxes Expenses,3136.48
Expense,Total Propane Expenses,1464.9199999999998
Expense,Total Cauv Expenses,0.0
Expense,Total German Mutual Insurance,1587.44
Expense,Total Miscellaneous Expenses,11275.26
Expense,Total Field Expenses,4207.79
Expense,Total Field 5 Year Lime Expenses,0
Expense,Total Year 2022 Field Expenses,5900.62
